{"tableau":[
    {"1":[
        {"Text":"A cause d'un problème d'originalité, nous nous ré-incarnons en gobelin dans une pièce sombre.."},
        {"Reponse":[
            {"1":[
                {"Text": "Suivant"},
                {"Liens": "2"}
            ]},
            {"2":[
                {"Text": ""},
                {"Liens": ""}
            ]},
            {"3":[
                {"Text": ""},
                {"Liens": ""}
            ]}
        ]}
    ]},
    {"2":[
        {"Text":"Etant toujours dans cette pièce sombre. Que faites vous ?"},
        {"Reponse":[
            {"1":[
                {"Text": "Regarder autour de soi"},
                {"Liens": "3"}
            ]},
            {"2":[
                {"Text": "Essayer de crier"},
                {"Liens": "4"}
            ]},
            {"3":[
                {"Text": "Se curer le nez"},
                {"Liens": "5"}
            ]}
        ]}
    ]},
    {"3":[
        {"Text":"Il fait noir mais vous pouvez ressentir la présence d'un sac dans votre dos."},
        {"Reponse":[
            {"1":[
                {"Text": "Fouiller dans son sac"},
                {"Liens": "6"}
            ]},
            {"2":[
                {"Text": ""},
                {"Liens": ""}
            ]},
            {"3":[
                {"Text": ""},
                {"Liens": ""}
            ]}
        ]}
    ]},
    {"4":[
        {"Text":"Ah mince, personne ne vous entend et seuls des sons étranges sortent de votre bouche."},
        {"Reponse":[
            {"1":[
                {"Text": "Suivant"},
                {"Liens": "2"}
            ]},
            {"2":[
                {"Text": ""},
                {"Liens": ""}
            ]},
            {"3":[
                {"Text": ""},
                {"Liens": ""}
            ]}
        ]}
    ]},
    {"5":[
        {"Text":"Ahhh, vous êtes plus à l'aise après vous être curé le nez."},
        {"Reponse":[
            {"1":[
                {"Text": "Génial !"},
                {"Liens": "2"}
            ]},
            {"2":[
                {"Text": ""},
                {"Liens": ""}
            ]},
            {"3":[
                {"Text": ""},
                {"Liens": ""}
            ]}
        ]}
    ]},
    {"6":[
        {"Text":"Votre sac est équipé comme pour partir à l'aventure. Mais ce dernier est lourd et vous ne pouvez récupérer qu'un seul objet. Lequel ?"},
        {"Reponse":[
            {"1":[
                {"Text": "Récupérer la lampe"},
                {"Liens": "7"}
            ]},
            {"2":[
                {"Text": "Récupérer le tapis"},
                {"Liens": "8"}
            ]},
            {"3":[
                {"Text": ""},
                {"Liens": ""}
            ]}
        ]}
    ]},
    {"7":[
        {"Text":"Au moins vous voyez mieux. Et vous vous rendez compte qu'il y a une porte devant vous. Que faites vous ?"},
        {"Reponse":[
            {"1":[
                {"Text": "Défoncer la porte !"},
                {"Liens": "9"}
            ]},
            {"2":[
                {"Text": "Crocheter la porte"},
                {"Liens": "10"}
            ]},
            {"3":[
                {"Text": ""},
                {"Liens": ""}
            ]}
        ]}
    ]},
    {"8":[
        {"Text":"Dans le tapis, vous trouvez... UNE EPEE ! Pratique."},
        {"Reponse":[
            {"1":[
                {"Text": "Crocheter la porte"},
                {"Liens": "10"}
            ]},
            {"2":[
                {"Text": "Défoncer la porte !"},
                {"Liens": "11"}
            ]},
            {"3":[
                {"Text": ""},
                {"Liens": ""}
            ]}
        ]}
    ]},
    {"9":[
        {"Text":"La porte tombe, et vous découvrez des gardes surpris, que faire ?"},
        {"Reponse":[
            {"1":[
                {"Text": "Fuir"},
                {"Liens": "13"}
            ]},
            {"2":[
                {"Text": "Combattre"},
                {"Liens": "12"}
            ]},
            {"3":[
                {"Text": ""},
                {"Liens": ""}
            ]}
        ]}
    ]},
    {"10":[
        {"Text":"C'est assez bruyant... Et d'un coup d'un seul des gardes ouvrent la porte et vous tuent."},
        {"Reponse":[
            {"1":[
                {"Text": "GAME OVER, voulez vous vous réincarner ?"},
                {"Liens": "1"}
            ]},
            {"2":[
                {"Text": ""},
                {"Liens": ""}
            ]},
            {"3":[
                {"Text": ""},
                {"Liens": ""}
            ]}
        ]}
    ]},
    {"11":[
        {"Text":"La porte tombe, et vous découvrez des gardes surpris, que faire ?"},
        {"Reponse":[
            {"1":[
                {"Text": "Fuir"},
                {"Liens": "13"}
            ]},
            {"2":[
                {"Text": "Combattre"},
                {"Liens": "14"}
            ]},
            {"3":[
                {"Text": ""},
                {"Liens": ""}
            ]}
        ]}
    ]},
    {"12":[
        {"Text":"Sans rien pour vous défendre, vous mourrez"},
        {"Reponse":[
            {"1":[
                {"Text": "GAME OVER, voulez vous vous réincarner ?"},
                {"Liens": "1"}
            ]},
            {"2":[
                {"Text": ""},
                {"Liens": ""}
            ]},
            {"3":[
                {"Text": ""},
                {"Liens": ""}
            ]}
        ]}
    ]},
    {"13":[
        {"Text":"Vous vous perdez dans les couloirs que les gardes connaissent bien..."},
        {"Reponse":[
            {"1":[
                {"Text": "GAME OVER, voulez vous vous réincarner ?"},
                {"Liens": "1"}
            ]},
            {"2":[
                {"Text": ""},
                {"Liens": ""}
            ]},
            {"3":[
                {"Text": ""},
                {"Liens": ""}
            ]}
        ]}
    ]},
    {"14":[
        {"Text":"Grâce à votre épée, vous les neutralisez ! VICTOIRE ! Vous pouvez vous enfuir"},
        {"Reponse":[
            {"1":[
                {"Text": "Voulez vous recommencer, afin de tester les différentes possibilités ? (Et pourquoi pas trouver un chemin secret ?)"},
                {"Liens": "15"}
            ]},
            {"2":[
                {"Text": ""},
                {"Liens": ""}
            ]},
            {"3":[
                {"Text": ""},
                {"Liens": ""}
            ]}
        ]}
    ]},
    {"15":[
        {"Text":"L'eau du fleuve ne retourne pas à sa(/son code) source."},
        {"Reponse":[
            {"1":[
                {"Text": "Etes-vous sûr de vouloir recommencer ? 😈"},
                {"Liens": "16"}
            ]},
            {"2":[
                {"Text": ""},
                {"Liens": ""}
            ]},
            {"3":[
                {"Text": ""},
                {"Liens": ""}
            ]}
        ]}
    ]},
    {"16":[
        {"Text":"Dans ce cas, vous avez perdu. 😭"},
        {"Reponse":[
            {"1":[
                {"Text": ""},
                {"Liens": ""}
            ]},
            {"2":[
                {"Text": ""},
                {"Liens": ""}
            ]},
            {"3":[
                {"Text": ""},
                {"Liens": ""}
            ]}
        ]}
    ]}
]}